%YAML 1.1
%TAG !u! tag:unity3d.com,2011:
--- !u!1 &3519149557902403339
GameObject:
  m_ObjectHideFlags: 0
  m_CorrespondingSourceObject: {fileID: 0}
  m_PrefabInstance: {fileID: 0}
  m_PrefabAsset: {fileID: 0}
  serializedVersion: 6
  m_Component:
  - component: {fileID: 6393645286816941928}
  m_Layer: 0
  m_Name: DropSplash-180
  m_TagString: Untagged
  m_Icon: {fileID: 0}
  m_NavMeshLayer: 0
  m_StaticEditorFlags: 0
  m_IsActive: 1
--- !u!4 &6393645286816941928
Transform:
  m_ObjectHideFlags: 0
  m_CorrespondingSourceObject: {fileID: 0}
  m_PrefabInstance: {fileID: 0}
  m_PrefabAsset: {fileID: 0}
  m_GameObject: {fileID: 3519149557902403339}
  m_LocalRotation: {x: 0, y: 0, z: 0, w: 1}
  m_LocalPosition: {x: 0, y: 0, z: 0}
  m_LocalScale: {x: 1, y: 1, z: 1}
  m_Children:
  - {fileID: 7305509319481686439}
  m_Father: {fileID: 0}
  m_RootOrder: 0
  m_LocalEulerAnglesHint: {x: 0, y: 0, z: 0}
--- !u!1001 &7305509319481811751
PrefabInstance:
  m_ObjectHideFlags: 0
  serializedVersion: 2
  m_Modification:
    m_TransformParent: {fileID: 6393645286816941928}
    m_Modifications:
    - target: {fileID: 100000, guid: b0e4179e6579e1c4a82723f06e98b534, type: 3}
      propertyPath: m_Name
      value: DropSplash-180
      objectReference: {fileID: 0}
    - target: {fileID: 400000, guid: b0e4179e6579e1c4a82723f06e98b534, type: 3}
      propertyPath: m_RootOrder
      value: 0
      objectReference: {fileID: 0}
    - target: {fileID: 400000, guid: b0e4179e6579e1c4a82723f06e98b534, type: 3}
      propertyPath: m_LocalPosition.x
      value: 0.003879475
      objectReference: {fileID: 0}
    - target: {fileID: 400000, guid: b0e4179e6579e1c4a82723f06e98b534, type: 3}
      propertyPath: m_LocalPosition.y
      value: -2.8199669e-18
      objectReference: {fileID: 0}
    - target: {fileID: 400000, guid: b0e4179e6579e1c4a82723f06e98b534, type: 3}
      propertyPath: m_LocalPosition.z
      value: -0.01686032
      objectReference: {fileID: 0}
    - target: {fileID: 400000, guid: b0e4179e6579e1c4a82723f06e98b534, type: 3}
      propertyPath: m_LocalRotation.w
      value: 0.7071068
      objectReference: {fileID: 0}
    - target: {fileID: 400000, guid: b0e4179e6579e1c4a82723f06e98b534, type: 3}
      propertyPath: m_LocalRotation.x
      value: 0.7071068
      objectReference: {fileID: 0}
    - target: {fileID: 400000, guid: b0e4179e6579e1c4a82723f06e98b534, type: 3}
      propertyPath: m_LocalRotation.y
      value: -0
      objectReference: {fileID: 0}
    - target: {fileID: 400000, guid: b0e4179e6579e1c4a82723f06e98b534, type: 3}
      propertyPath: m_LocalRotation.z
      value: -0
      objectReference: {fileID: 0}
    - target: {fileID: 400000, guid: b0e4179e6579e1c4a82723f06e98b534, type: 3}
      propertyPath: m_LocalEulerAnglesHint.x
      value: 0
      objectReference: {fileID: 0}
    - target: {fileID: 400000, guid: b0e4179e6579e1c4a82723f06e98b534, type: 3}
      propertyPath: m_LocalEulerAnglesHint.y
      value: 0
      objectReference: {fileID: 0}
    - target: {fileID: 400000, guid: b0e4179e6579e1c4a82723f06e98b534, type: 3}
      propertyPath: m_LocalEulerAnglesHint.z
      value: 0
      objectReference: {fileID: 0}
    m_RemovedComponents: []
  m_SourcePrefab: {fileID: 100100000, guid: b0e4179e6579e1c4a82723f06e98b534, type: 3}
--- !u!4 &7305509319481686439 stripped
Transform:
  m_CorrespondingSourceObject: {fileID: 400000, guid: b0e4179e6579e1c4a82723f06e98b534,
    type: 3}
  m_PrefabInstance: {fileID: 7305509319481811751}
  m_PrefabAsset: {fileID: 0}
