%YAML 1.1
%TAG !u! tag:unity3d.com,2011:
--- !u!78 &1
TagManager:
  serializedVersion: 2
  tags:
  - CinemachineTarget
  - Arrow
  - Ground
  - VideoChat
  - Floor
  - Coin
  - Maze
  - MazeTrigger
  - MazeTriggerActivation
  - ColorPickerTrigger
  - LaserTrigger
  - Laser
  - LaserZone
  layers:
  - Default
  - TransparentFX
  - Ignore Raycast
  - Player
  - Water
  - UI
  - Ground
  - Character
  - Maze
  - ShootingZone
  - 
  - 
  - 
  - 
  - 
  - 
  - 
  - 
  - 
  - 
  - 
  - 
  - 
  - 
  - 
  - 
  - 
  - 
  - 
  - 
  - 
  - 
  m_SortingLayers:
  - name: Default
    uniqueID: 0
    locked: 0
